[gd_scene load_steps=5 format=2]

[ext_resource path="res://pickupable.tscn" type="PackedScene" id=1]
[ext_resource path="res://items/axe.gd" type="Script" id=2]
[ext_resource path="res://items/axe.png" type="Texture" id=3]

[sub_resource type="RectangleShape2D" id=1]
extents = Vector2( 30.6838, 57.1903 )

[node name="axe" type="RigidBody2D" groups=[
"axe",
]]
position = Vector2( -56.486, -57.2598 )
script = ExtResource( 2 )

[node name="Sprite" type="Sprite" parent="."]
scale = Vector2( 0.61262, 0.61262 )
texture = ExtResource( 3 )
region_rect = Rect2( 0, 0, 80, 128 )

[node name="CollisionShape2D" type="CollisionShape2D" parent="."]
position = Vector2( 0.256036, 0.323852 )
rotation = 0.0178374
shape = SubResource( 1 )

[node name="pickupable" parent="." instance=ExtResource( 1 )]
