[gd_scene load_steps=8 format=2]

[ext_resource path="res://player/player.png" type="Texture" id=1]
[ext_resource path="res://player.gd" type="Script" id=2]
[ext_resource path="res://player/player_animation_frames.tres" type="SpriteFrames" id=3]
[ext_resource path="res://items/chop1.ogg" type="AudioStream" id=4]

[sub_resource type="PhysicsMaterial" id=1]
friction = 0.1

[sub_resource type="CapsuleShape2D" id=2]
radius = 30.0538
height = 36.8946

[sub_resource type="RectangleShape2D" id=3]
extents = Vector2( 26.2712, 33.233 )

[node name="player" type="RigidBody2D"]
collision_layer = 2
collision_mask = 2049
mode = 2
mass = 0.666735
physics_material_override = SubResource( 1 )
gravity_scale = 2.0
contacts_reported = 1
contact_monitor = true
can_sleep = false
linear_damp = 1.8
script = ExtResource( 2 )

[node name="CollisionShape2D" type="CollisionShape2D" parent="."]
shape = SubResource( 2 )

[node name="Sprite" type="Sprite" parent="."]
visible = false
texture = ExtResource( 1 )
region_enabled = true
region_rect = Rect2( 0, 0, 64, 96 )

[node name="PickUpArea" type="Area2D" parent="."]
collision_mask = 2057

[node name="CollisionShape2D" type="CollisionShape2D" parent="PickUpArea"]
position = Vector2( 56.5752, 22.3709 )
shape = SubResource( 3 )

[node name="AnimatedSprite" type="AnimatedSprite" parent="."]
position = Vector2( 9.67694, -48.788 )
scale = Vector2( -1.10679, 1.10679 )
frames = ExtResource( 3 )
animation = "action"
playing = true

[node name="AudioStreamPlayer2D" type="AudioStreamPlayer2D" parent="."]
stream = ExtResource( 4 )
[connection signal="body_entered" from="PickUpArea" to="." method="_on_PickUpArea_body_entered"]
