[gd_scene load_steps=8 format=2]

[ext_resource path="res://fire/smoke1.png" type="Texture" id=1]
[ext_resource path="res://fire/fire1.png" type="Texture" id=2]
[ext_resource path="res://fire/fire.gd" type="Script" id=3]
[ext_resource path="res://fire/fire1.ogg" type="AudioStream" id=4]

[sub_resource type="Curve" id=1]
_data = [ Vector2( 0, 0 ), 0.0, 0.0859767, 0, 0, Vector2( 0.876543, 0.982955 ), 0.0, 0.0, 0, 0 ]

[sub_resource type="Gradient" id=2]
offsets = PoolRealArray( 0, 0.496689, 0.900662, 1 )
colors = PoolColorArray( 1, 0.570644, 0.570644, 0.292857, 1, 0.603922, 0.603922, 1, 1, 1, 1, 0, 1, 0.556863, 0.556863, 0 )

[sub_resource type="CapsuleShape2D" id=3]
radius = 52.4836
height = 107.171

[node name="fire" type="Node2D" groups=[
"fire",
]]
script = ExtResource( 3 )

[node name="smoke_particles" type="CPUParticles2D" parent="."]
amount = 50
lifetime = 5.0
randomness = 0.33
lifetime_randomness = 0.3
local_coords = false
texture = ExtResource( 1 )
emission_shape = 1
emission_sphere_radius = 23.03
direction = Vector2( 0, -1 )
spread = 13.55
gravity = Vector2( 0, -50 )
initial_velocity = 50.0
initial_velocity_random = 1.0
angular_velocity = 170.32
angular_velocity_random = 0.39
linear_accel = 15.05
linear_accel_random = 0.22
scale_amount = 0.2
scale_amount_random = 0.66
scale_amount_curve = SubResource( 1 )
color_ramp = SubResource( 2 )

[node name="fire_particles" type="CPUParticles2D" parent="."]
amount = 125
lifetime = 1.5
local_coords = false
texture = ExtResource( 2 )
emission_shape = 1
emission_sphere_radius = 23.03
direction = Vector2( 0, -1 )
spread = 180.0
gravity = Vector2( 0, -150.004 )
initial_velocity = 40.0
initial_velocity_random = 0.3
angular_velocity = 170.32
angular_velocity_random = 0.39
linear_accel = -32.26
linear_accel_random = 0.22
scale_amount = 0.03
scale_amount_random = 0.11
color_ramp = SubResource( 2 )

[node name="spread_area" type="Area2D" parent="."]
input_pickable = false
collision_layer = 0
collision_mask = 2093

[node name="CollisionShape2D" type="CollisionShape2D" parent="spread_area"]
shape = SubResource( 3 )

[node name="AudioStreamPlayer2D" type="AudioStreamPlayer2D" parent="."]
stream = ExtResource( 4 )
volume_db = -13.944
autoplay = true
