[gd_resource type="DynamicFont" load_steps=2 format=2]

[ext_resource path="res://ui/Gloria_Hallelujah/GloriaHallelujah-Regular.ttf" type="DynamicFontData" id=1]

[resource]
size = 27
font_data = ExtResource( 1 )
